{
	"list": [
		{
			"image": "https://cloud.netlifyusercontent.com/assets/344dbf88-fdf9-42bb-adb4-46f01eedd629/68dd54ca-60cf-4ef7-898b-26d7cbe48ec7/10-dithering-opt.jpg",
			"title": "올빼미",
			"description": "부엉부엉 시부엉"
		}, {
			"image": "http://www.gettyimages.ca/gi-resources/images/Homepage/Hero/UK/CMS_Creative_164657191_Kingfisher.jpg",
			"title": "새새새새새새새새새새새새새새새새새새새새새새새새새새새새새새새새새새새새새새새새새새새새새새새새새새새새새새새새새새새새새새새새새새새새새새새새새새새새새새새새새새새새새새새새새새새새새새새",
			"description": "끼루룰루룩 끼루룰루룩 끼루룰루룩 끼루룰루룩 끼루룰루룩 끼루룰루룩 끼루룰루룩 끼루룰루룩 끼루룰루룩 끼루룰루룩 끼루룰루룩 끼루룰루룩 끼루룰루룩 끼루룰루룩 끼루룰루룩 끼루룰루룩 끼루룰루룩 끼루룰루룩 끼루룰루룩 끼루룰루룩 끼루룰루룩 끼루룰루룩 끼루룰루룩 끼루룰루룩 끼루룰루룩"
		}, {
			"image": "https://cdn.pixabay.com/photo/2016/09/01/10/23/image-1635747_1280.jpg",
			"title": "꽃에 나비가 붙었어여",
			"description": "꽃나비당 꽃나비당꽃나비당꽃나비당꽃나비당꽃나비당꽃나비당꽃나비당꽃나비당꽃나비당꽃나비당꽃나비당꽃나비당꽃나비당"
		}, {
			"image": "https://www.w3schools.com/w3css/img_fjords.jpg",
			"title": "절벽",
			"description": "절벽이 잇습니다. 떨어지면 무서울 꺼같아요."
		},{
			"image": "https://cloud.netlifyusercontent.com/assets/344dbf88-fdf9-42bb-adb4-46f01eedd629/68dd54ca-60cf-4ef7-898b-26d7cbe48ec7/10-dithering-opt.jpg",
			"title": "올빼미",
			"description": "부엉부엉 시부엉"
		}
	],
	"pageMap": {
		"pageNum": 4,
		"nextPageUrl": "",
		"count": 5,
		"prevPageUrl": "https://pikachu987.github.io/tec/testFile/pageExample3.json",
		"totalCount": 45,
		"totalPage": 4
	}
}